devadd 1 4 IO16 24
devadd 1 2 DCEM 24
devadd 1 3 EBEM 24
devadd 2 5 DGEM 77

action 3 1 10 4 8 4 6 0 80 0 1 49 b7
action 1 1 10 4 8 4 6 0 80 0 0 88 77

paramadd 2 00 1 0.1 0 56 46 55 0 0 0 0 0 0 0
paramadd 2 01 1 0.1 0 56 46 55 0 0 0 0 0 0 0 
paramadd 2 02 1 0.1 0 56 46 55 0 0 0 0 0 0 0
paramadd 2 03 1 0.1 0 56 46 55 0 0 0 0 0 0 0
paramadd 2 04 1 0.1 0 100 0 70 0 0 0 0 0 0 0
paramadd 2 05 1 0.1 0 100 0 70 0 0 0 0 0 0 0
paramadd 2 06 1 0.1 0 100 0 70 0 0 0 0 0 0 0
paramadd 2 07 1 0.1 0 100 0 70 0 0 0 0 0 0 0 
paramadd 2 08 1 0.1 0 100 0 70 0 0 0 0 0 0 0
paramadd 2 09 1 0.1 0 100 0 70 0 0 0 0 0 0 0
paramadd 2 10 1 0.1 0 100 0 70 0 0 0 0 0 0 0
paramadd 2 11 1 1 0 5600 0 3850 0 0 0 0 0 0 0 
paramadd 2 12 1 1 0 5600 0 3850 0 0 0 0 0 0 0 
paramadd 2 13 1 1 0 5600 0 3850 0 0 0 0 0 0 0
paramadd 2 14 1 1 0 5600 0 3850 0 0 0 0 0 0 0
paramadd 2 15 1 1 0 5600 0 3850 0 0 0 0 0 0 0
paramadd 2 16 1 1 0 5600 0 3850 0 0 0 0 0 0 0
paramadd 2 17 1 1 0 5600 0 3850 0 0 0 0 0 0 0
paramadd 2 18 2 1 0 0 0 0 1 0 0 0 0 0 0
paramadd 2 20 2 1 0 0 0 0 1 0 0 0 0 0 0
paramadd 2 22 2 1 0 0 0 0 1 0 0 0 0 0 0
paramadd 2 24 2 1 0 0 0 0 1 0 0 0 0 0 0
paramadd 2 26 2 1 0 0 0 0 1 0 0 0 0 0 0
paramadd 2 28 2 1 0 0 0 0 1 0 0 0 0 0 0
paramadd 2 30 2 1 0 0 0 0 1 0 0 0 0 0 0
paramadd 2 32 2 1 0 0 0 0 1 0 0 0 0 0 0
paramadd 2 34 2 1 0 0 0 0 1 0 0 0 0 0 0
paramadd 2 36 2 1 0 0 0 0 1 0 0 0 0 0 0
paramadd 2 38 2 1 0 0 0 0 1 0 0 0 0 0 0
paramadd 2 40 2 1 0 0 0 0 1 0 0 0 0 0 0
paramadd 2 42 2 1 0 0 0 0 1 0 0 0 0 0 0
paramadd 2 44 2 1 0 0 0 0 1 0 0 0 0 0 0
paramadd 2 46 2 1 0 0 0 0 1 0 0 0 0 0 0
paramadd 2 48 2 1 0 0 0 0 1 0 0 0 0 0 0
paramadd 2 50 2 1 0 0 0 0 1 0 0 0 0 0 0
paramadd 2 52 2 1 0 0 0 0 1 0 0 0 0 0 0
paramadd 2 54 2 1 0 0 0 0 1 0 0 0 0 0 0
paramadd 2 56 2 1 0 0 0 0 1 0 0 0 0 0 0
paramadd 2 58 2 1 0 0 0 0 1 0 0 0 0 0 0
paramadd 2 60 1 1 0 0 0 0 1 0 0 0 0 0 0
paramadd 2 61 1 1 0 0 0 0 1 0 0 0 0 0 0
paramadd 2 62 1 1 0 0 0 0 1 0 0 0 0 0 0
paramadd 2 63 1 1 0 0 0 0 1 0 0 0 0 0 0
paramadd 2 64 1 1 0 0 0 0 1 0 0 0 0 0 0
paramadd 2 65 1 1 0 0 0 0 1 0 0 0 0 0 0
paramadd 2 66 1 1 0 0 0 0 1 0 0 0 0 0 0

paramadd 3 00 1 0.1 0 300 90 250 0 0 0 0 0 0 0
paramadd 3 01 1 0.1 0 300 90 250 0 0 0 0 0 0 0
paramadd 3 02 1 0.1 0 300 90 250 0 0 0 0 0 0 0
paramadd 3 03 1 0.1 0 0 0 0 1 0 0 0 0 0 0
paramadd 3 04 1 0.1 0 0 0 0 1 0 0 0 0 0 0
paramadd 3 05 1 0.1 0 0 0 0 1 0 0 0 0 0 0
paramadd 3 06 1 0.1 0 0 0 0 1 0 0 0 0 0 0
paramadd 3 07 1 0.1 0 0 0 0 1 0 0 0 0 0 0
paramadd 3 08 1 0.1 0 150 0.5 100 0 0 0 0 0 0 0
paramadd 3 09 1 0.1 0 150 0.5 100 0 0 0 0 0 0 0
paramadd 3 10 1 0.1 0 150 0.5 100 0 0 0 0 0 0 0
paramadd 3 11 1 0.1 0 0 0 0 1 0 0 0 0 0 0
paramadd 3 12 1 0.1 0 0 0 0 1 0 0 0 0 0 0
paramadd 3 13 1 0.1 0 0 0 0 1 0 0 0 0 0 0
paramadd 3 14 1 0.1 0 0 0 0 1 0 0 0 0 0 0
paramadd 3 15 1 0.1 0 0 0 0 1 0 0 0 0 0 0
paramadd 3 16 1 0.1 0 0 0 0 1 0 0 0 0 0 0
paramadd 3 17 1 0.1 0 0 0 0 1 0 0 0 0 0 0
paramadd 3 18 1 0.1 0 0 0 0 1 0 0 0 0 0 0
paramadd 3 19 1 0.1 0 0 0 0 1 0 0 0 0 0 0
paramadd 3 20 1 0.1 0 0 0 0 1 0 0 0 0 0 0
paramadd 3 21 1 0.1 0 0 0 0 1 0 0 0 0 0 0
paramadd 3 22 1 0.1 0 0 0 0 1 0 0 0 0 0 0
paramadd 3 23 1 0.1 0 0 0 0 1 0 0 0 0 0 0
paramadd 3 24 1 0.001 0 2 0.8 1 0 0 0 0 0 0
paramadd 3 25 1 0.001 0 2 0.8 1 0 0 0 0 0 0 0
paramadd 3 26 1 0.001 0 2 0.8 1 0 0 0 0 0 0 0
paramadd 3 27 1 0.001 0 2 0.8 1 0 0 0 0 0 0 0
paramadd 3 28 1 0.01 0 100 45 55 0 0 0 0 0 0 0
paramadd 3 29 2 0.1 0 0 0 0 1 0 0 0 0 0 0
paramadd 3 31 2 0.1 0 0 0 0 1 0 0 0 0 0 0
paramadd 3 33 2 0.1 0 0 0 0 1 0 0 0 0 0 0
paramadd 3 35 2 0.1 0 0 0 0 1 0 0 0 0 0 0
paramadd 3 37 2 0.1 0 0 0 0 1 0 0 0 0 0 0
paramadd 3 39 2 0.1 0 0 0 0 1 0 0 0 0 0 0
paramadd 3 41 2 0.1 0 0 0 0 1 0 0 0 0 0 0
paramadd 3 43 2 0.1 0 0 0 0 1 0 0 0 0 0 0
paramadd 3 45 2 1 0 0 0 0 1 0 0 0 0 0 0
paramadd 3 47 2 1 0 0 0 0 1 0 0 0 0 0 0
paramadd 3 49 2 1 0 0 0 0 1 0 0 0 0 0 0
paramadd 3 51 1 1 0 0 0 0 1 0 0 0 0 0 0
paramadd 3 52 1 1 0 0 0 0 1 0 0 0 0 0 0
paramadd 3 53 1 0.1 0 0 0 0 1 0 0 0 0 0 0
paramadd 3 54 1 0.1 0 0 0 0 1 0 0 0 0 0 0
paramadd 3 55 1 0.1 0 0 0 0 1 0 0 0 0 0 0
paramadd 3 56 1 0.1 0 0 0 0 1 0 0 0 0 0 0
paramadd 3 57 1 0.1 0 0 0 0 1 0 0 0 0 0 0
paramadd 3 58 1 0.1 0 0 0 0 1 0 0 0 0 0 0
paramadd 3 59 1 1 0 0 0 0 1 0 0 0 0 0 0
paramadd 3 60 1 1 0 0 0 0 1 0 0 0 0 0 0
paramadd 3 61 1 1 0 0 0 0 1 0 0 0 0 0 0
paramadd 3 62 1 1 0 0 0 0 1 0 0 0 0 0 0
paramadd 3 63 1 0.1 0 0 0 0 1 0 0 0 0 0 0
paramadd 3 64 1 0.1 0 0 0 0 1 0 0 0 0 0 0
paramadd 3 65 1 0.1 0 0 0 0 1 0 0 0 0 0 0
paramadd 3 66 1 0.1 0 0 0 0 1 0 0 0 0 0 0
paramadd 3 67 1 1 0 0 0 0 1 0 0 0 0 0 0
paramadd 3 68 1 1 0 0 0 0 1 0 0 0 0 0 0
paramadd 3 69 1 1 0 0 0 0 1 0 0 0 0 0 0
paramadd 3 70 1 1 0 0 0 0 1 0 0 0 0 0 0
paramadd 3 71 1 1 0 0 0 0 1 0 0 0 0 0 0
paramadd 3 72 1 1 0 0 0 0 1 0 0 0 0 0 0
paramadd 3 73 1 1 0 0 0 0 1 0 0 0 0 0 0
paramadd 3 74 1 1 0 0 0 0 1 0 0 0 0 0 0



paramadd 4 00 1 .1 0 100 20 26 0 1 1 1 1 1 3
paramadd 4 01 1 .1 0 100 20 26 0 1 1 1 1 1 3
paramadd 4 02 1 .1 0 100 20 26 0 1 1 1 1 1 3
paramadd 4 03 1 .1 0 100 20 26 0 1 1 1 1 1 3 
paramadd 4 04 1  1 0 100 0 100 0 0 0 0 0 0 0
paramadd 4 05 1 .1 0 100 0 100 0 0 0 0 0 0 0
paramadd 4 06 1 .1 0 100 0 100 0 0 0 0 0 0 0
paramadd 4 07 1 .1 0 100 0 100 0 0 0 0 0 0 0
paramadd 4 08 1 .1 0 100 0 100 0 0 0 0 0 0 0
paramadd 4 09 4  1 0 0 0 0 0 0 0 0 0 0 0
paramadd 4 10 4  1 0 0 0 0 0 0 0 0 0 0 0
paramadd 4 11 4  1 0 0 0 0 0 0 0 0 0 0 0
paramadd 4 12 4  1 0 0 0 0 0 0 0 0 0 0 0
paramadd 4 13 4  1 0 0 0 0 0 0 0 0 0 0 0
paramadd 4 14 4  1 0 0 0 0 0 0 0 0 0 0 0
paramadd 4 15 4  1 0 0 0 0 0 0 0 0 0 0 0
paramadd 4 16 4  1 0 100 0 1 0 0 0 0 0 0 0
paramadd 4 128 1 1 0 100 0 1 0 0 0 0 0 0 0
paramadd 4 129 1 1 0 100 0 1 0 0 0 0 0 0 0
paramadd 4 130 1 1 0 100 0 1 0 0 0 0 0 0 0
paramadd 4 131 1 1 0 100 0 1 0 0 0 0 0 0 0
paramadd 4 132 1 1 0 100 0 1 0 0 0 0 0 0 0
paramadd 4 133 1 1 0 100 0 1 0 0 0 0 0 0 0
paramadd 4 134 1 1 0 100 0 1 0 0 0 0 0 0 0
paramadd 4 135 1 1 0 100 0 1 0 0 0 0 0 0 0


paramadd 5 1200 3 1 0 300 90 300 0 0 0 0 0 0 0
paramadd 5 1202 3 1 0 300 90 300 0 0 0 0 0 0 0
paramadd 5 1204 3 1 0 300 90 300 0 0 0 0 0 0 0
paramadd 5 1206 3 1 0 300 90 300 0 0 0 0 0 0 0
paramadd 5 1208 3 1 0 300 90 300 0 0 0 0 0 0 0
paramadd 5 1210 3 1 0 300 90 300 0 0 0 0 0 0 0
paramadd 5 1212 3 1 0 300 90 300 0 0 0 0 0 0 0
paramadd 5 1214 3 1 0 300 90 300 0 0 0 0 0 0 0
paramadd 5 1216 3 1 0 300 90 300 0 0 0 0 0 0 0
paramadd 5 1218 3 1 0 300 90 300 0 0 0 0 0 0 0
paramadd 5 1220 3 1 0 300 90 300 0 0 0 0 0 0 0
paramadd 5 1222 3 1 0 300 90 300 0 0 0 0 0 0 0
paramadd 5 1224 3 1 0 300 90 300 0 0 0 0 0 0 0
paramadd 5 1226 3 1 0 300 90 300 0 0 0 0 0 0 0
paramadd 5 1228 3 1 0 300 90 300 0 0 0 0 0 0 0
paramadd 5 1230 3 1 0 300 90 300 0 0 0 0 0 0 0
paramadd 5 1232 3 1 0 300 90 300 0 0 0 0 0 0 0
paramadd 5 1234 3 1 0 300 90 300 0 0 0 0 0 0 0
paramadd 5 1236 3 1 0 300 90 300 0 0 0 0 0 0 0
paramadd 5 1238 3 1 0 300 90 300 0 0 0 0 0 0 0
paramadd 5 1240 3 1 0 300 90 300 0 0 0 0 0 0 0
paramadd 5 1242 3 1 0 300 90 300 0 0 0 0 0 0 0
paramadd 5 1244 3 1 0 300 90 300 0 0 0 0 0 0 0
paramadd 5 1246 3 1 0 300 90 300 0 0 0 0 0 0 0
paramadd 5 1248 3 1 0 300 90 300 0 0 0 0 0 0 0
paramadd 5 1250 3 1 0 300 90 300 0 0 0 0 0 0 0
paramadd 5 1252 3 1 0 300 90 300 0 0 0 0 0 0 0
paramadd 5 1254 3 1 0 300 90 300 0 0 0 0 0 0 0
paramadd 5 1256 3 1 0 300 90 300 0 0 0 0 0 0 0
paramadd 5 1258 3 1 0 300 90 300 0 0 0 0 0 0 0
paramadd 5 1260 3 1 0 300 90 300 0 0 0 0 0 0 0
paramadd 5 1262 3 1 0 300 90 300 0 0 0 0 0 0 0
paramadd 5 1264 3 1 0 300 90 300 0 0 0 0 0 0 0
paramadd 5 1266 3 1 0 300 90 300 0 0 0 0 0 0 0
paramadd 5 1268 3 1 0 300 90 300 0 0 0 0 0 0 0
paramadd 5 1270 3 1 0 300 90 300 0 0 0 0 0 0 0
paramadd 5 1272 3 1 0 300 90 300 0 0 0 0 0 0 0
paramadd 5 1274 3 1 0 300 90 300 0 0 0 0 0 0 0
paramadd 5 1276 3 1 0 300 90 300 0 0 0 0 0 0 0


if 2 1
if 1 1 
devstate 5 1
devstate 4 1
devstate 3 1
devstate 2 1
devcfg 5 0 6000



